Überblick_SGB
…
dat_07 %>%
  summarize(n_clusters = n_distinct(idno, kanton))

## # A tibble: 1 x 1
##   n_clusters
##        <int>
## 1      18760

Wenn es clusters gäbe würde der Code die “sample sizes in clusters” wiedergeben (n=1)

dat_07 %>%
  count(kanton, idno)

## # A tibble: 18,760 x 3
##        kanton  idno     n
##     <dbl+lbl> <dbl> <int>
##  1 1 [Zürich]   254     1
##  2 1 [Zürich]   255     1
##  3 1 [Zürich]   256     1
##  4 1 [Zürich]   258     1
##  5 1 [Zürich]   265     1
##  6 1 [Zürich]   266     1
##  7 1 [Zürich]   267     1
##  8 1 [Zürich]   268     1
##  9 1 [Zürich]   269     1
## 10 1 [Zürich]   272     1
## # ... with 18,750 more rows

Ausgabe Tabelle der Durchschnittsgewichtung in den Kanton

tab_weights_kanton

## # A tibble: 27 x 2
##                      kanton avg_wt
##                   <dbl+lbl>  <dbl>
##  1  1 [Zürich]               431. 
##  2  2 [Bern / Berne]         327. 
##  3  3 [Luzern]               267. 
##  4  4 [Uri]                   59.4
##  5  5 [Schwyz]               175. 
##  6  6 [Obwalden]             578. 
##  7  7 [Nidwalden]            496. 
##  8  8 [Glarus]               386. 
##  9  9 [Zug]                  520. 
## 10 10 [Fribourg / Freiburg]  198. 
## # ... with 17 more rows
…
Bedingte Proportionen zu tab_DH hinzufügen

tab_D_cond <- tab_D %>%
  as.data.frame() %>%
  group_by(kanton.f) %>%
  mutate(n_Kanton.f = sum(Freq), Prop_sex = Freq/n_Kanton.f) %>%
  ungroup()
tab_D_cond

## # A tibble: 54 x 5
##    kanton.f            sex.f    Freq n_Kanton.f Prop_sex
##    <fct>               <fct>   <dbl>      <dbl>    <dbl>
##  1 Zürich              Mann  389507.    803947.    0.484
##  2 Bern / Berne        Mann  281534.    597253.    0.471
##  3 Luzern              Mann   98144.    221818.    0.442
##  4 Uri                 Mann   10465.     21091.    0.496
##  5 Schwyz              Mann   36510.     79596.    0.459
##  6 Obwalden            Mann    9457.     23112.    0.409
##  7 Nidwalden           Mann   11723.     28795.    0.407
##  8 Glarus              Mann   14188.     21248.    0.668
##  9 Zug                 Mann   27720.     61868.    0.448
## 10 Fribourg / Freiburg Mann   71407.    153294.    0.466
## # ... with 44 more rows
…
Addieren des bedingten Anteil der Stürze (taltp01) für jeden Kanton

tab_taltp01_prop <- as.data.frame(tab_taltp01) %>%
  group_by(kanton.f) %>%
  mutate(n_kanton.f = sum(Freq), Prop_n.kanton.f = Freq / n_kanton.f) %>%
  ungroup()

tab_taltp01_prop

## # A tibble: 54 x 5
##    taltp01.f                   kanton.f        Freq n_kanton.f Prop_n.kanton.f
##    <fct>                       <fct>          <dbl>      <dbl>           <dbl>
##  1 Sturz letzte 12 Monate      Zürich        62422.    223576.           0.279
##  2 kein Sturz letzte 12 Monate Zürich       161153.    223576.           0.721
##  3 Sturz letzte 12 Monate      Bern / Berne  37073.    148591.           0.249
##  4 kein Sturz letzte 12 Monate Bern / Berne 111518.    148591.           0.751
##  5 Sturz letzte 12 Monate      Luzern        12880.     51229.           0.251
##  6 kein Sturz letzte 12 Monate Luzern        38349.     51229.           0.749
##  7 Sturz letzte 12 Monate      Uri            1208.      5371.           0.225
##  8 kein Sturz letzte 12 Monate Uri            4163.      5371.           0.775
##  9 Sturz letzte 12 Monate      Schwyz         4043.     15716.           0.257
## 10 kein Sturz letzte 12 Monate Schwyz        11673.     15716.           0.743
## # ... with 44 more rows
…
